8.6.0.1
134.221.96.0
195.113.232.89
104.43.195.251
185.146.170.254
8.0.6.4
23.96.52.53
224.0.0.251
162.255.119.249
198.54.117.212
198.54.117.210
175.129.1.0
191.239.213.197
198.54.117.211
8.8.4.4
23.100.122.175
104.40.211.35
108.167.137.38
192.185.171.197
198.54.115.150
91.107.105.112
8.8.8.8
89.248.168.30
213.136.77.63
193.225.118.162
91.235.212.22
92.222.82.98
193.140.100.40
194.54.80.30
224.0.0.252
193.200.91.90
213.5.39.34
37.187.56.220
116.193.160.26
185.146.171.112
46.8.255.158
104.171.112.43
104.171.112.42
185.146.170.174
239.255.255.250
146.0.32.144
224.0.0.2
45.55.7.53
178.124.134.106
213.175.93.20
95.46.8.65
134.221.96.13
159.109.0.161
159.109.0.129
224.0.0.22
224.0.0.1
134.221.96.7
40.185.0.161
40.185.0.129
40.185.0.87
134.221.96.6
212.59.117.207
91.222.139.45
93.189.89.83
62.75.184.70
110.77.142.156
41.38.18.230
62.109.133.248
103.23.154.184
200.57.183.176
188.126.116.26
176.53.0.103
185.86.76.115
202.137.31.219
51.254.114.130
13.107.4.50
5.9.37.137
46.32.243.144
46.183.66.210
129.105.146.223
195.96.228.199
148.202.223.222
199.231.189.9
115.241.52.2
181.177.231.245
84.234.75.108
239.2.0.252
239.2.0.251
2.21.74.96
5.101.120.73
91.121.30.169
185.129.148.246
51.254.129.140
188.226.154.38
195.113.232.82
80.231.122.150
8.8.247.90
198.167.136.139
136.243.209.34
203.153.165.21
69.43.168.214
192.188.58.163
109.74.9.119
8.254.191.142
8.253.143.121
52.169.120.89
8.253.207.120
195.113.232.73
216.218.185.162
95.158.148.249
59.125.50.132
89.163.220.168
8.253.143.249
217.182.53.102
104.236.252.178
216.66.0.143
64.250.115.129
95.211.191.142
216.66.39.66
136.243.91.74
95.211.242.83
176.56.184.37
185.145.253.60
68.169.52.216
103.209.145.144
208.87.225.248
8.253.40.14
81.12.229.190
107.170.0.14
37.120.172.171
8.8.247.36
147.32.83.56
91.219.28.55
217.197.39.1
195.88.209.221
178.32.255.130
185.180.198.147
80.188.120.11
178.18.125.1
239.255.3.22
205.178.137.221
195.113.232.72
182.254.218.183
73.179.163.236
119.254.11.66
195.113.232.75
224.0.0.0
93.184.221.240
185.53.179.29
45.58.49.244
173.8.189.196
104.236.172.37
192.254.173.150
2.22.146.106
8.250.3.254
52.166.249.114
37.187.54.76
107.170.231.118
176.9.116.3
67.208.113.15
134.221.96.12
194.129.0.161
194.129.0.87
194.129.0.129
177.175.0.129
177.175.0.161
177.175.0.87
81.169.128.232
134.221.96.11
70.140.0.70
134.221.96.2
144.90.0.70
176.11.0.70
134.221.96.15
134.221.96.5
123.17.0.70
171.200.0.70
195.113.232.90
64.207.134.54
68.169.52.10
162.144.46.185
31.200.244.17
192.241.229.144
67.23.31.252
103.245.153.70
112.124.3.15
185.4.133.16
5.9.59.184
192.185.210.237
173.236.180.76
46.37.6.41
66.96.147.113
187.45.193.222
104.27.168.23
104.27.169.23
192.185.29.116
194.144.173.94
184.171.254.44
81.169.145.84
104.28.15.18
104.28.14.18
192.185.157.169
69.89.31.232
104.27.177.117
104.27.176.117
178.20.153.49
84.18.198.45
65.254.248.149
89.248.106.157
217.26.52.35
192.249.122.131
202.162.188.104
216.92.186.217
107.178.108.52
5.144.130.38
198.1.85.52
200.159.128.132
91.121.222.31
103.1.186.61
202.44.54.4
111.67.18.231
211.49.227.154
85.13.138.126
27.124.120.41
94.138.210.202
85.13.150.120
188.116.9.68
91.219.209.134
187.1.141.120
187.45.193.163
125.63.63.14
192.185.144.192
66.71.245.50
118.98.221.68
192.185.160.67
162.144.252.210
210.1.225.85
109.104.92.180
85.128.202.47
93.93.116.35
188.65.114.122
91.230.204.213
69.195.98.100
195.70.48.70
88.86.121.75
144.76.34.117
162.144.250.237
156.17.48.65
103.30.245.114
212.227.17.190
201.175.17.35
212.227.17.168
201.175.12.142
212.227.15.167
212.227.15.183
213.46.255.2
212.247.156.7
195.200.35.195
81.169.145.133
217.31.82.111
194.169.227.18
194.25.134.51
213.165.67.124
213.165.67.108
82.165.142.107
103.4.18.170
46.163.78.94
81.88.24.211
45.79.186.178
62.75.145.252
178.79.172.45
192.155.83.86
95.110.231.207
66.175.215.16
62.210.36.193
119.59.124.163
172.93.54.93
87.106.77.193
89.231.13.33
89.231.13.27
59.61.184.228
200.119.236.86
212.24.109.200
212.24.110.35
221.179.156.39
195.2.252.152
59.40.249.231
212.24.110.154
212.24.110.38
190.138.249.45
193.0.140.177
36.66.107.162
212.24.110.1
212.24.110.190
37.59.158.241
59.41.202.198
76.8.104.213
212.24.110.51
89.231.13.18
147.135.144.28
200.112.228.69
212.24.109.218
212.24.109.100
217.29.220.255
58.52.155.163
195.113.235.81
2.16.4.186
195.113.235.99
54.235.148.27
31.216.147.136
85.25.119.91
139.59.33.202
109.169.66.107
163.172.81.35
